R para inteligencia de negocios - 6 Análisis exploratorio de datos
…
Distribución de Pareto para 10,000 observaciones

Lógicamente, aquí también tuvimos que aplicar directamente la función de densidad de Pareto, para poder genenrar la curva de densidad.

Este tipo de distribución es bastante interesante, ya que la podemos ver en variables económicas reales, por ejemplo, si tomáramos los ingresos reportados en la Encuesta Nacional de Ingreso-Gasto de los Hogares (ENIGH) publicada por el INEGI, podríamos darnos cuenta de que la concentración de mayores ingresos en el país se reduce a una pequeña cantidad de personas, mostrándonos una clara distribución de Pareto. Para este caso en particular vamos a hacer rápidamente el ejercicio en R (ya que los datos son de fácil acceso), mediante el siguiente dataset disponible en el repositorio oficial del libro, el cual es una extracción directa de los ingresos totales reportados por personas encuestadas en la ENIGH en 2022:

# A tibble: 397,182 × 1
   ing_tri
     <dbl>
 1   7435.
 2  33750.
 3   1957.
 4    391.
 5    978.
 6  52826.
 7   2935.
 8   1712.
 9  20543.
10   8804.
# ℹ 397,172 more rows
…
