R para inteligencia de negocios - 9 Presentando mis datos: Dashboards (Shiny) y apps web
…
library(sf)

Linking to GEOS 3.11.0, GDAL 3.5.3, PROJ 9.1.0; sf_use_s2() is TRUE

shapefile_mexico <- read_sf("shapefile/dest_2015gw.shp") |> 
  dplyr::select(CAPITAL,geometry)

shapefile_mexico

Simple feature collection with 32 features and 1 field
Geometry type: MULTIPOLYGON
Dimension:     XY
Bounding box:  xmin: -118.3665 ymin: 14.53507 xmax: -86.71074 ymax: 32.71863
Geodetic CRS:  WGS 84
# A tibble: 32 × 2
   CAPITAL                                                              geometry
   <chr>                                                      <MULTIPOLYGON [°]>
 1 Aguascalientes      (((-101.8617 22.02888, -101.8619 22.02869, -101.8621 22.…
 2 Mexicali            (((-114.1288 28.01224, -114.1283 28.01216, -114.1274 28.…
 3 La Paz              (((-109.9103 22.87937, -109.9103 22.87937, -109.9104 22.…
 4 Campeche            (((-91.55142 18.28699, -91.55248 18.28699, -91.55272 18.…
 5 Saltillo            (((-99.84322 27.76986, -99.85626 27.75595, -99.85922 27.…
 6 Colima              (((-103.7375 18.6844, -103.7378 18.68416, -103.7381 18.6…
 7 Tuxtla Gutiérrez    (((-92.77034 15.15128, -92.77107 15.15108, -92.77188 15.…
 8 Chihuahua           (((-103.3076 29.00323, -103.3077 29.00228, -103.3081 29.…
 9 Ciudad de México    (((-98.979 19.07446, -98.98236 19.07761, -98.98359 19.07…
10 Victoria de Durango (((-103.6991 26.72526, -103.682 26.72157, -103.6684 26.7…
# ℹ 22 more rows
…
sales_data

Rows: 2823 Columns: 25
── Column specification ────────────────────────────────────────────────────────
Delimiter: ","
chr (16): ORDERDATE, STATUS, PRODUCTLINE, PRODUCTCODE, CUSTOMERNAME, PHONE, ...
dbl  (9): ORDERNUMBER, QUANTITYORDERED, PRICEEACH, ORDERLINENUMBER, SALES, Q...

ℹ Use `spec()` to retrieve the full column specification for this data.
ℹ Specify the column types or set `show_col_types = FALSE` to quiet this message.

# A tibble: 2,823 × 25
   ORDERNUMBER QUANTITYORDERED PRICEEACH ORDERLINENUMBER SALES ORDERDATE  STATUS
         <dbl>           <dbl>     <dbl>           <dbl> <dbl> <chr>      <chr> 
 1       10107              30      95.7               2 2871  2/24/2003… Shipp…
 2       10121              34      81.4               5 2766. 5/7/2003 … Shipp…
 3       10134              41      94.7               2 3884. 7/1/2003 … Shipp…
 4       10145              45      83.3               6 3747. 8/25/2003… Shipp…
 5       10159              49     100                14 5205. 10/10/200… Shipp…
 6       10168              36      96.7               1 3480. 10/28/200… Shipp…
 7       10180              29      86.1               9 2498. 11/11/200… Shipp…
 8       10188              48     100                 1 5512. 11/18/200… Shipp…
 9       10201              22      98.6               2 2169. 12/1/2003… Shipp…
10       10211              41     100                14 4708. 1/15/2004… Shipp…
# ℹ 2,813 more rows
# ℹ 18 more variables: QTR_ID <dbl>, MONTH_ID <dbl>, YEAR_ID <dbl>,
#   PRODUCTLINE <chr>, MSRP <dbl>, PRODUCTCODE <chr>, CUSTOMERNAME <chr>,
#   PHONE <chr>, ADDRESSLINE1 <chr>, ADDRESSLINE2 <chr>, CITY <chr>,
#   STATE <chr>, POSTALCODE <chr>, COUNTRY <chr>, TERRITORY <chr>,
#   CONTACTLASTNAME <chr>, CONTACTFIRSTNAME <chr>, DEALSIZE <chr>
…
