R para inteligencia de negocios - 6 Limpieza y manejo de datos: Principales problemas y soluciones
…
# A tibble: 3 × 2
# Groups:   Species [3]
  Species    data             
  <fct>      <list>           
1 setosa     <tibble [50 × 4]>
2 versicolor <tibble [50 × 4]>
3 virginica  <tibble [50 × 4]>

Y para acceder a los elementos de cada conjunto, simplemente debemos llamarlos mediante un signo $, utilizando indexación para seleccionar cada grupo:

agrupacion$data[1] |> 
  head(10)

[[1]]
# A tibble: 50 × 4
   Sepal.Length Sepal.Width Petal.Length Petal.Width
          <dbl>       <dbl>        <dbl>       <dbl>
 1          5.1         3.5          1.4         0.2
 2          4.9         3            1.4         0.2
 3          4.7         3.2          1.3         0.2
 4          4.6         3.1          1.5         0.2
 5          5           3.6          1.4         0.2
 6          5.4         3.9          1.7         0.4
 7          4.6         3.4          1.4         0.3
 8          5           3.4          1.5         0.2
 9          4.4         2.9          1.4         0.2
10          4.9         3.1          1.5         0.1
# ℹ 40 more rows
…
